Recursive
['032799A5-1C1F-4B46-B4D9-F00DB1EA38E0.root', '4888DF3C-49EB-BD45-BDAB-9BBE0AFAD675.root', '5BB04327-C614-974A-8EE4-5637161D4259.root', '866633E9-7C89-4448-8F99-9C1EF5A7CC88.root', 'A7B0DDC6-A5FA-6247-B50F-AE22EF9FC524.root', 'B77D6104-143C-A446-B0AD-7915D10AE86E.root', 'BAED5F33-9E99-1B47-A800-C8EC009C65EE.root', 'C8EC4418-944D-5B4C-904F-919441BE4646.root', 'CAF03D96-4961-7A43-B489-C024ABE81FE7.root', 'DF685CAF-D0F0-8244-8EFA-F6D558BFDFC2.root']
files found in directory /gridgroup/cms/cdozen/NanoAOD/mc/RunIIFall17NanoAODv7/TprimeBToTH_M-1000_LH_TuneCP5_13TeV-madgraph-pythia8/NANOAODSIM/
['/gridgroup/cms/cdozen/NanoAOD/mc/RunIIFall17NanoAODv7/TprimeBToTH_M-1000_LH_TuneCP5_13TeV-madgraph-pythia8/NANOAODSIM/032799A5-1C1F-4B46-B4D9-F00DB1EA38E0.root', '/gridgroup/cms/cdozen/NanoAOD/mc/RunIIFall17NanoAODv7/TprimeBToTH_M-1000_LH_TuneCP5_13TeV-madgraph-pythia8/NANOAODSIM/4888DF3C-49EB-BD45-BDAB-9BBE0AFAD675.root', '/gridgroup/cms/cdozen/NanoAOD/mc/RunIIFall17NanoAODv7/TprimeBToTH_M-1000_LH_TuneCP5_13TeV-madgraph-pythia8/NANOAODSIM/5BB04327-C614-974A-8EE4-5637161D4259.root', '/gridgroup/cms/cdozen/NanoAOD/mc/RunIIFall17NanoAODv7/TprimeBToTH_M-1000_LH_TuneCP5_13TeV-madgraph-pythia8/NANOAODSIM/866633E9-7C89-4448-8F99-9C1EF5A7CC88.root', '/gridgroup/cms/cdozen/NanoAOD/mc/RunIIFall17NanoAODv7/TprimeBToTH_M-1000_LH_TuneCP5_13TeV-madgraph-pythia8/NANOAODSIM/A7B0DDC6-A5FA-6247-B50F-AE22EF9FC524.root', '/gridgroup/cms/cdozen/NanoAOD/mc/RunIIFall17NanoAODv7/TprimeBToTH_M-1000_LH_TuneCP5_13TeV-madgraph-pythia8/NANOAODSIM/B77D6104-143C-A446-B0AD-7915D10AE86E.root', '/gridgroup/cms/cdozen/NanoAOD/mc/RunIIFall17NanoAODv7/TprimeBToTH_M-1000_LH_TuneCP5_13TeV-madgraph-pythia8/NANOAODSIM/BAED5F33-9E99-1B47-A800-C8EC009C65EE.root', '/gridgroup/cms/cdozen/NanoAOD/mc/RunIIFall17NanoAODv7/TprimeBToTH_M-1000_LH_TuneCP5_13TeV-madgraph-pythia8/NANOAODSIM/C8EC4418-944D-5B4C-904F-919441BE4646.root', '/gridgroup/cms/cdozen/NanoAOD/mc/RunIIFall17NanoAODv7/TprimeBToTH_M-1000_LH_TuneCP5_13TeV-madgraph-pythia8/NANOAODSIM/CAF03D96-4961-7A43-B489-C024ABE81FE7.root', '/gridgroup/cms/cdozen/NanoAOD/mc/RunIIFall17NanoAODv7/TprimeBToTH_M-1000_LH_TuneCP5_13TeV-madgraph-pythia8/NANOAODSIM/DF685CAF-D0F0-8244-8EFA-F6D558BFDFC2.root']
splitting files
